240403 01:53:41 mysqld_safe Starting mariadbd daemon with databases from /config/databases
2024-04-03  1:53:41 0 [Note] Starting MariaDB 10.11.6-MariaDB-log source revision fecd78b83785d5ae96f2c6ff340375be803cd299 as process 492
2024-04-03  1:53:41 0 [Warning] Setting lower_case_table_names=2 because file system for /config/databases/ is case insensitive
2024-04-03  1:53:41 0 [Note] InnoDB: Compressed tables use zlib 1.3.1
2024-04-03  1:53:41 0 [Note] InnoDB: Number of transaction pools: 1
2024-04-03  1:53:41 0 [Note] InnoDB: Using ARMv8 crc32 + pmull instructions
2024-04-03  1:53:41 0 [Note] mariadbd: O_TMPFILE is not supported on /tmp (disabling future attempts)
2024-04-03  1:53:41 0 [Note] InnoDB: Using Linux native AIO
2024-04-03  1:53:41 0 [Note] InnoDB: Initializing buffer pool, total size = 256.000MiB, chunk size = 4.000MiB
2024-04-03  1:53:41 0 [Note] InnoDB: Completed initialization of buffer pool
2024-04-03  1:53:41 0 [Note] InnoDB: Buffered log writes (block size=512 bytes)
2024-04-03  1:53:41 0 [Note] InnoDB: End of log at LSN=47092
2024-04-03  1:53:41 0 [Note] InnoDB: 128 rollback segments are active.
2024-04-03  1:53:41 0 [Note] InnoDB: Setting file './ibtmp1' size to 12.000MiB. Physically writing the file full; Please wait ...
2024-04-03  1:53:41 0 [Note] InnoDB: File './ibtmp1' size is now 12.000MiB.
2024-04-03  1:53:41 0 [Note] InnoDB: log sequence number 47092; transaction id 16
2024-04-03  1:53:41 0 [Note] InnoDB: Loading buffer pool(s) from /config/databases/ib_buffer_pool
2024-04-03  1:53:41 0 [Note] Plugin 'FEEDBACK' is disabled.
2024-04-03  1:53:41 0 [Note] InnoDB: Buffer pool(s) load completed at 240403  1:53:41
2024-04-03  1:53:41 0 [Note] Server socket created on IP: '0.0.0.0'.
2024-04-03  1:53:41 0 [Note] Server socket created on IP: '::'.
2024-04-03  1:53:41 0 [Note] /usr/bin/mariadbd: ready for connections.
Version: '10.11.6-MariaDB-log'  socket: '/var/run/mysqld/mysqld.sock'  port: 3306  Alpine Linux
2024-04-03  1:53:42 4 [Warning] Aborted connection 4 to db: 'unconnected' user: 'unauthenticated' host: 'localhost' (This connection closed normally without authentication)
2024-04-03  1:53:46 6 [Warning] Aborted connection 6 to db: 'unconnected' user: 'unauthenticated' host: 'bookstack.testbookstack_default' (This connection closed normally without authentication)
2024-04-03  1:55:01 0 [Note] /usr/bin/mariadbd (initiated by: unknown): Normal shutdown
2024-04-03  1:55:01 0 [Note] InnoDB: FTS optimize thread exiting.
2024-04-03  1:55:01 0 [Note] InnoDB: Starting shutdown...
2024-04-03  1:55:01 0 [Note] InnoDB: Dumping buffer pool(s) to /config/databases/ib_buffer_pool
2024-04-03  1:55:01 0 [Note] InnoDB: Buffer pool(s) dump completed at 240403  1:55:01
2024-04-03  1:55:02 0 [Note] InnoDB: Removed temporary tablespace data file: "./ibtmp1"
2024-04-03  1:55:02 0 [Note] InnoDB: Shutdown completed; log sequence number 1471740; transaction id 2195
2024-04-03  1:55:02 0 [Note] /usr/bin/mariadbd: Shutdown complete

240403 01:55:02 mysqld_safe mysqld from pid file /var/run/mysqld/mysqld.pid ended
